[{
	"name": "Ordering Croissant",
	"sentences": [{
		"english": "Can I get a croissant?",
		"korean": "크로와상 하나 주세요.",
		"tip": null
	}, {
		"english": "Can I get a croissant warmed up?",
		"korean": "크로와상 하나 데워서 주세요.",
		"tip": null
	}, {
		"english": "Can I get a croissant warmed up just a little bit?",
		"korean": "크로와상 하나 조금만 데워서 주세요.",
		"tip": null
	}, {
		"english": "Can I get a croissant warmed up just a little bit with butter?",
		"korean": "크로와상 하나 조금만 데워서 버터랑 주세요.",
		"tip": null
	}]
}, {
	"name": "Taking A Shower",
	"sentences": [{
		"english": "I took a shower.",
		"korean": "나 샤워했어.",
		"tip": null
	}, {
		"english": "I took a shower after coming back from work.",
		"korean": "나 일끝나고 와서 샤워했어.",
		"tip": null
	}, {
		"english": "I took a long shower after coming back from work.",
		"korean": "나 일끝나고 와서 오랫동안 샤워했어.",
		"tip": null
	}, {
		"english": "I took a long shower after coming back from work to relax.",
		"korean": "나 일끝나고 와서 릴렉스하려고 오랫동안 샤워했어.",
		"tip": null
	}]
}, {
	"name": "Cooking Lunch",
	"sentences": [{
		"english": "I had to cook my own lunch.",
		"korean": "난 내 점심을 만들어야 했어.",
		"tip": null
	}, {
		"english": "I had to cook my own lunch for work.",
		"korean": "난 회사에서 먹을 수 있게 내 점심을 만들어야 했어.",
		"tip": null
	}, {
		"english": "I had to cook my own lunch for work, so I made fried rice.",
		"korean": "난 회사에서 먹을 수 있게 내 점심을 만들어야 했어. 그래서 난 볶음밥을 만들었어.",
		"tip": null
	}, {
		"english": "I had to cook my own lunch for work this morning, so I made fried rice.",
		"korean": "난 아침에 회사에서 먹을 수 있게 내 점심을 만들어야 했어. 그래서 난 볶음밥을 만들었어.",
		"tip": null
	}]
}, {
	"name": "Korean Consultant",
	"sentences": [{
		"english": "Are there any Korean consultants?",
		"korean": "한국인 상담사가 있어요?",
		"tip": null
	}, {
		"english": "Are there any Korean consultants in this school?",
		"korean": "이 학교에 한국인 상담사가 있어요?",
		"tip": null
	}, {
		"english": "Are there any Korean consultants I can meet right now in this school?",
		"korean": "이 학교에 제가 지금 만날 수 있는 한국인 상담사가 있어요?",
		"tip": null
	}, {
		"english": "Are there any female Korean consultants I can meet right now in this school?",
		"korean": "이 학교에 제가 지금 만날 수 있는 여자 한국인 상담사가 있어요?",
		"tip": null
	}]
}, {
	"name": "New Boots",
	"sentences": [{
		"english": "I bought a new pair of boots.",
		"korean": "나는 새 부츠를 샀어.",
		"tip": null
	}, {
		"english": "I bought a new pair of winter boots.",
		"korean": "나는 새 겨울부츠를 샀어.",
		"tip": null
	}, {
		"english": "I bought a new pair of winter boots to wear, while walking to school.",
		"korean": "나는 학교로 걸어갈 때 신을 새 겨울부츠를 샀어.",
		"tip": null
	}, {
		"english": "I bought a new pair of winter boots to wear, while walking to school because there will be a lot of snow.",
		"korean": "나는 학교로 걸어갈 때 신을 새 겨울부츠를 샀어. 왜냐하면 거긴 눈이 많이 내릴거야.",
		"tip": null
	}]
}, {
	"name": "Favourite Musician",
	"sentences": [{
		"english": "My favourite musician was coming to my city.",
		"korean": "내가 제일 좋아하는 뮤지션이 우리 도시에 왔었어.",
		"tip": null
	}, {
		"english": "My favourite musician was coming to my city so I tried to buy tickets.",
		"korean": "내가 제일 좋아하는 뮤지션이 우리 도시에 왔었어. 그래서 나는 티켓을 사려고 노력했었어.",
		"tip": null
	}, {
		"english": "My favourite musician was coming to my city so I tried to buy his concert tickets.",
		"korean": "내가 제일 좋아하는 뮤지션이 우리 도시에 왔었어. 그래서 나는 콘서트 티켓을 사려고 노력했었어.",
		"tip": null
	}, {
		"english": "My favourite musician was coming to my city so I tried to buy tickets for his concert, but it was already sold out.",
		"korean": "내가 제일 좋아하는 뮤지션이 우리 도시에 왔었어. 그래서 나는 콘서트 티켓을 사려고 노력했었어. 그런데 그건 이미 매진됐어.",
		"tip": null
	}]
}, {
	"name": "Friend's Cat",
	"sentences": [{
		"english": "I went over to my friend's house.",
		"korean": "난 친구집에 놀러갔었어.",
		"tip": null
	}, {
		"english": "I went over to my friend's house and he had a cat.",
		"korean": "난 친구집에 놀러갔었어. 그리고 그는 고양이를 가지고 있었어.",
		"tip": null
	}, {
		"english": "I went over to my friend's house and he had a cat but I had cat allergies.",
		"korean": "난 친구집에 놀러갔었어. 그리고 그는 고양이를 가지고 있었어. 그런데 나는 고양이 알러지가 있었어.",
		"tip": null
	}, {
		"english": "I went over to my friend's house and he had a cat but I had cat allergies. So I had to go back home.",
		"korean": "난 친구집에 놀러갔었어. 그리고 그는 고양이를 가지고 있었어. 그런데 나는 고양이 알러지가 있었어. 그래서 난 집에 돌아가야했었어.",
		"tip": null
	}]
}, {
	"name": "Getting To School",
	"sentences": [{
		"english": "I take the bus and then transfer to the subway.",
		"korean": "난 버스를 한번 타고 지하철로 환승해.",
		"tip": null
	}, {
		"english": "I take the bus and then transfer to the subway to get to school.",
		"korean": "난 학교에 가려고 버스를 한번 타고 지하철로 환승해.",
		"tip": null
	}, {
		"english": "I take the bus and then transfer to the subway to get to school every morning.",
		"korean": "난 매일 아침 학교에 가려고 버스를 한번 타고 지하철로 환승해.",
		"tip": null
	}, {
		"english": "I take the bus and then transfer to the subway to get to school every morning. It takes an hour to get to school from my house.",
		"korean": "난 매일 아침 학교에 가려고 버스를 한번 타고 지하철로 환승해. 우리집에서 학교까지 1시간이 걸려.",
		"tip": null
	}]
}, {
	"name": "Too Much Pizza",
	"sentences": [{
		"english": "I had eaten too much pizza.",
		"korean": "난 너무 피자를 많이 먹었어.",
		"tip": null
	}, {
		"english": "I had eaten too much pizza so I felt tired.",
		"korean": "난 너무 피자를 많이 먹었어. 그래서 난 피곤했어.",
		"tip": null
	}, {
		"english": "I had eaten too much pizza yesterday so I felt tired.",
		"korean": "난 어제 너무 피자를 많이 먹었어. 그래서 난 피곤했어.",
		"tip": null
	}, {
		"english": "I had eaten too much pizza yesterday at my friend's birthday party so I felt tired.",
		"korean": "난 어제 내 친구 생일파티에서 너무 피자를 많이 먹었어. 그래서 난 피곤했어.",
		"tip": null
	}]
}, {
	"name": "Buying Nail Clippers",
	"sentences": [{
		"english": "He had to buy nail clippers.",
		"korean": "그는 손톱깎기를 사야했어.",
		"tip": null
	}, {
		"english": "He had to buy nail clippers from the mall.",
		"korean": "그는 마트에서 손톱깎기를 사야했어.",
		"tip": null
	}, {
		"english": "He had to buy nail clippers from the mall because his old one broke.",
		"korean": "그는 마트에서 손톱깎기를 사야했어. 왜냐하면 오래된 게 부러졌어.",
		"tip": null
	}, {
		"english": "He had to buy nail clippers from the mall because his old one broke and his fingernails were getting long.",
		"korean": "그는 마트에서 손톱깎기를 사야했어. 왜냐하면 손톱이 길어버렸고 오래된 게 부러졌어.",
		"tip": null
	}]
}, {
	"name": "Various Food",
	"sentences": [{
		"english": "You have to eat a variety of foods.",
		"korean": "넌 음식을 골고루 먹어야 해.",
		"tip": null
	}, {
		"english": "You have to eat a variety of foods to be healthy.",
		"korean": "넌 건강해지려면 음식을 골고루 먹어야 해.",
		"tip": null
	}, {
		"english": "You have to eat a variety of foods to be healthy. It will also make you feel better.",
		"korean": "넌 건강해지려면 음식을 골고루 먹어야 해. 그건 너의 기분을 더 좋게 할거야.",
		"tip": null
	}, {
		"english": "You have to eat a variety of foods to be healthy. It will also make you feel better and improve cognitive abilities.",
		"korean": "넌 건강해지려면 음식을 골고루 먹어야 해. 그건 인지능력을 향상시켜주고 너의 기분을 더 좋게 할거야.",
		"tip": null
	}]
}, {
	"name": "Lunch At Work",
	"sentences": [{
		"english": "I buy lunch with my coworkers.",
		"korean": "나는 내 동료랑 점심을 사먹어.",
		"tip": null
	}, {
		"english": "I buy lunch with my coworkers every Friday.",
		"korean": "나는 내 동료랑 금요일마다 점심을 사먹어.",
		"tip": null
	}, {
		"english": "I buy lunch with my coworkers every Friday from the same place.",
		"korean": "나는 내 동료랑 금요일마다 같은 곳에서 점심을 사먹어.",
		"tip": null
	}, {
		"english": "I buy lunch with my coworkers every Friday from the same place and get the same dish.",
		"korean": "나는 내 동료랑 금요일마다 같은 곳에서 같은 요리로 점심을 사먹어.",
		"tip": null
	}]
}, {
	"name": "Finding A Book",
	"sentences": [{
		"english": "Do you know where the cooking section is?",
		"korean": "요리책은 어느 쪽에 있어요?",
		"tip": null
	}, {
		"english": "Do you know where the cooking section is? I am looking for a specific book about baking",
		"korean": "요리책은 어느 쪽에 있어요? 저는 베이킹책을 찾고 있는데요.",
		"tip": null
	}, {
		"english": "Do you know where the cooking section is? I am looking for a specific book about baking and the color is blue",
		"korean": "요리책은 어느 쪽에 있어요? 저는 색깔이 파랑색인 베이킹책을 찾고 있는데요.",
		"tip": null
	}, {
		"english": "Do you know where the cooking section is? I am looking for a specific book about baking and the color is blue but I don't remember the title.",
		"korean": "요리책은 어느 쪽에 있어요? 저는 색깔이 파랑색인 베이킹책을 찾고 있는데요. 제목은 기억이 안나요.",
		"tip": null
	}]
}, {
	"name": "Asking About Exams",
	"sentences": [{
		"english": "How were your exams?",
		"korean": "시험 어땠어?",
		"tip": null
	}, {
		"english": "How were your exams last week?",
		"korean": "지난 주 시험 어땠어?",
		"tip": null
	}, {
		"english": "How were your exams last week? Hailey told me it was easy.",
		"korean": "지난 주 시험 어땠어? 헤일리는 나한테 쉬웠다고 말했어.",
		"tip": null
	}, {
		"english": "How were your exams last week? Hailey told me it was easy because she studied hard.",
		"korean": "지난 주 시험 어땠어? 헤일리는 열심히 공부했어서 나한테 쉬웠다고 말했어.",
		"tip": null
	}]
}]
